{
	"required": true,
	"package": "net.acuadragon100.enderpearlbetweendimensions.mixin",
	"compatibilityLevel": "JAVA_17",
	"mixins": [
		"MixinEnderianPearlEntity",
		"MixinEnderPearlEntity",
		"MixinProjectileEntity"
	],
	"client": [
	],
	"injectors": {
		"defaultRequire": 1
	}
}
